{
    "mc_samples" : [
        {
            "name" : "ttbar",
            "lists" : ["ttbar_mc16a", "ttbar_mc16d", "ttbar_mc16e"],
            "filedirs" : ["/data/uclhc/uci/user/dantrim/ntuples/n0307/i_apr10_fakes/mc/mc16a/output/", "/data/uclhc/uci/user/dantrim/ntuples/n0307/i_apr10_fakes/mc/mc16d/output/", "/data/uclhc/uci/user/dantrim/ntuples/n0307/i_apr10_fakes/mc/mc16e/output/"]
        },
        {
            "name" : "WtPP8",
            "lists" : ["WtPP8_mc16a", "WtPP8_mc16d", "WtPP8_mc16e"],
            "filedirs" : ["/data/uclhc/uci/user/dantrim/ntuples/n0307/i_apr10_fakes/mc/mc16a/output/", "/data/uclhc/uci/user/dantrim/ntuples/n0307/i_apr10_fakes/mc/mc16d/output/", "/data/uclhc/uci/user/dantrim/ntuples/n0307/i_apr10_fakes/mc/mc16e/output/"]
        },
        {
            "name" : "ttV",
            "lists" : ["ttV_mc16a", "ttV_mc16d", "ttV_mc16e"],
            "filedirs" : ["/data/uclhc/uci/user/dantrim/ntuples/n0307/i_apr10_fakes/mc/mc16a/output/", "/data/uclhc/uci/user/dantrim/ntuples/n0307/i_apr10_fakes/mc/mc16d/output/", "/data/uclhc/uci/user/dantrim/ntuples/n0307/i_apr10_fakes/mc/mc16e/output/"]
        },
        {
            "name" : "zjets",
            "lists" : ["zjets_and_dy_sherpa_mc16a", "zjets_and_dy_sherpa_mc16d", "zjets_and_dy_sherpa_mc16e"],
            "filedirs" : ["/data/uclhc/uci/user/dantrim/ntuples/n0307/i_apr10_fakes/mc/zjets_mc16a/output/", "/data/uclhc/uci/user/dantrim/ntuples/n0307/i_apr10_fakes/mc/zjets_mc16d/output/", "/data/uclhc/uci/user/dantrim/ntuples/n0307/i_apr10_fakes/mc/zjets_mc16e/output/"]
        }
    ],
    "data_sample" : [
        {
            "name" : "data1516",
            "lists" : ["n0307_data15", "n0307_data16"],
            "filedirs" : ["/data/uclhc/uci/user/dantrim/ntuples/n0307/i_apr10_fakes/data/output/", "/data/uclhc/uci/user/dantrim/ntuples/n0307/i_apr10_fakes/data/output/"]
        }
    ],
    "selections" : [
        {
            "name" : "os_out",
            "cut" : "isOS==1 && nBJets>=2 && mll>20 && mll<60 && mbb>100 && mbb<140 && NN_d_hh>4"
        }
    ]
}
